-------------------------------------------------------------------------------
Test set: com.baul.service.CopaServiceTest
-------------------------------------------------------------------------------
Tests run: 1, Failures: 0, Errors: 1, Skipped: 0, Time elapsed: 0.003 sec <<< FAILURE! - in com.baul.service.CopaServiceTest
obtenerEquiposPorGrupo_conGrupoExistente_devuelveListaEquipos(com.baul.service.CopaServiceTest)  Time elapsed: 0.003 sec  <<< ERROR!
java.lang.UnsupportedOperationException: Not supported yet.
	at com.baul.service.impl.CopaServiceImpl.obtenerEquiposPorGrupo(CopaServiceImpl.java:18)
	at com.baul.service.CopaServiceTest.obtenerEquiposPorGrupo_conGrupoExistente_devuelveListaEquipos(CopaServiceTest.java:27)

